<svg version="1.1" id="svgdoc" xmlns="http://www.w3.org/2000/svg" xmlns:xlink="http://www.w3.org/1999/xlink" width="1024" height="768" viewBox="0 0 1024 768" style="background: #000000">
<style type="text/css">
<![CDATA[
/* external system */
.eh	{ stroke: #006900; stroke-width: 1; fill: #333333; }
.el	{ stroke: #a80000; stroke-width: 1; fill: #333333; }
.e	{ stroke: #cccccc; stroke-width: 1; fill: #333333; }
.exh	{ stroke: #006900; stroke-width: 2; fill: #333333; }
.exl	{ stroke: #a80000; stroke-width: 2; stroke-dasharray: 8, 3; fill: #333333; }
.ex	{ stroke: #cccccc; stroke-width: 2; fill: #333333; }
/* external system text */
.es	{ font-size: 9px; font-family: Arial, Helvetica, sans-serif; fill: #ffffff; pointer-events: none;}
.er	{ font-weight: bold; font-size: 7px; font-family: verdana, Arial, sans-serif; fill: #dddddd; pointer-events: none;}
/* system */
.sh	{ stroke: #006900; stroke-width: 1; }
.sl	{ stroke: #a80000; stroke-width: 1; stroke-dasharray: 8, 3; }
.s	{ stroke: #777777; stroke-width: 1; }
.sc	{ stroke-width: 1.2; stroke-dasharray: 4, 3; }
.sx	{ stroke-width: 2.5; }
.scl	{ stroke: transparent; stroke-width: 2; fill: transparent; }
/* system text */
.ss	{ font-family: Arial, Helvetica, sans-serif; font-size: 9px; fill: #ffffff; pointer-events: none;}
.st	{ font-weight: bold; font-size: 7px; font-family: verdana, Arial, sans-serif; fill: #cccccc; pointer-events: none;}
.so	{ fill: #ff2222; }
.i	{ stroke: #0080FF; stroke-width: 1; fill: none; }
/* legend */
.lb	{ stroke-width: 1; stroke: #777777; fill: #222222; }
.lbt	{ stroke-width: 1; stroke: #777777; fill: #222222; }
.lt	{ fill: #ffffff; font-family: Arial, Helvetica, sans-serif; font-weight: bold; font-size: 12px; }
.lc	{ fill: #ffffff; font-family: Arial, Helvetica, sans-serif; font-size: 11px; }
.l	{ fill: #ffffff; font-family: Arial, Helvetica, sans-serif; font-size: 10px; }
/* highlight */
.h	{ fill: none; stroke-width: 3; stroke: #FFFFFF; }
.hw	{ fill: none; stroke-width: 2; stroke: #00AA00; }
.hl	{ fill: none; stroke-width: 2; stroke: #F00000; }
.hg	{ fill: none; stroke-width: 2; stroke: #00B000; }
/* camps */
.camp0  { fill: #222222; }
.camp1	{ fill: #a80000; }
.camp2  { fill: #9A0000; }
.camp3  { fill: #800000; }
.camp4  { fill: #660000; }
/* jumps */
.jump0  { stroke: #999999; stroke-width: 1; }
.jump1  { stroke: #800000; stroke-width: 3; }
]]>
</style>
<g id="map" transform="translate(0,0) scale(1)">
<defs>
  <radialGradient id="c2">
    <stop offset="20%" stop-color="#333333" />
    <stop offset="100%" stop-color="#9A0000" />
  </radialGradient>
  <radialGradient id="c3">
    <stop offset="20%" stop-color="#333333" />
    <stop offset="100%" stop-color="#800000" />
  </radialGradient>
  <radialGradient id="c4">
    <stop offset="20%" stop-color="#333333" />
    <stop offset="100%" stop-color="#660000" />
  </radialGradient>
</defs>
<g id="jumps">
<line id="j-30002756-30002755" class="jump0" x1="933.5" x2="978.5" y1="54.5" y2="19.5" />
<line id="j-30002757-30002756" class="jump0" x1="933.5" x2="868.5" y1="54.5" y2="44.5" />
<line id="j-30002759-30002756" class="jump0" x1="933.5" x2="953.5" y1="54.5" y2="99.5" />
<line id="j-30002758-30002757" class="jump0" x1="868.5" x2="798.5" y1="44.5" y2="29.5" />
<line id="j-30002758-30001388" class="jump0" x1="798.5" x2="713.5" y1="29.5" y2="14.5" />
<line id="j-30002760-30002759" class="jump0" x1="953.5" x2="973.5" y1="99.5" y2="144.5" />
<line id="j-30045334-30002760" class="jump0" x1="973.5" x2="943.5" y1="144.5" y2="174.5" />
<line id="j-30002796-30002795" class="jump0" x1="913.5" x2="983.5" y1="509.5" y2="484.5" />
<line id="j-30002799-30002796" class="jump0" x1="913.5" x2="988.5" y1="509.5" y2="539.5" />
<line id="j-30002806-30002796" class="jump0" x1="913.5" x2="833.5" y1="509.5" y2="494.5" />
<line id="j-30002807-30002806" class="jump0" x1="833.5" x2="778.5" y1="494.5" y2="479.5" />
<line id="j-30002808-30002807" class="jump0" x1="778.5" x2="708.5" y1="479.5" y2="479.5" />
<line id="j-30002809-30002807" class="jump0" x1="778.5" x2="783.5" y1="479.5" y2="424.5" />
<line id="j-30004985-30002807" class="jump0" x1="778.5" x2="723.5" y1="479.5" y2="539.5" />
<line id="j-30002810-30002809" class="jump0" x1="783.5" x2="908.5" y1="424.5" y2="454.5" />
<line id="j-30002811-30002809" class="jump0" x1="783.5" x2="883.5" y1="424.5" y2="414.5" />
<line id="j-30002813-30002809" class="jump0" x1="783.5" x2="823.5" y1="424.5" y2="389.5" />
<line id="j-30002811-30002810" class="jump0" x1="908.5" x2="883.5" y1="454.5" y2="414.5" />
<line id="j-30002812-30002811" class="jump0" x1="883.5" x2="953.5" y1="414.5" y2="419.5" />
<line id="j-30005334-30002812" class="jump0" x1="953.5" x2="983.5" y1="419.5" y2="374.5" />
<line id="j-30002813-30001376" class="jump0" x1="823.5" x2="908.5" y1="389.5" y2="369.5" />
<line id="j-30045346-30002813" class="jump0" x1="823.5" x2="828.5" y1="389.5" y2="354.5" />
<line id="j-30003788-30003787" class="jump0" x1="373.5" x2="428.5" y1="464.5" y2="419.5" />
<line id="j-30003790-30003787" class="jump0" x1="373.5" x2="363.5" y1="464.5" y2="424.5" />
<line id="j-30003791-30003787" class="jump0" x1="373.5" x2="448.5" y1="464.5" y2="469.5" />
<line id="j-30003792-30003787" class="jump0" x1="373.5" x2="248.5" y1="464.5" y2="519.5" />
<line id="j-30005300-30003787" class="jump0" x1="373.5" x2="403.5" y1="464.5" y2="499.5" />
<line id="j-30003789-30003788" class="jump0" x1="428.5" x2="518.5" y1="419.5" y2="434.5" />
<line id="j-30003790-30003788" class="jump0" x1="428.5" x2="363.5" y1="419.5" y2="424.5" />
<line id="j-30003791-30003789" class="jump0" x1="518.5" x2="448.5" y1="434.5" y2="469.5" />
<line id="j-30003826-30003790" class="jump0" x1="363.5" x2="303.5" y1="424.5" y2="399.5" />
<line id="j-30003793-30003792" class="jump0" x1="248.5" x2="153.5" y1="519.5" y2="524.5" />
<line id="j-30003794-30003792" class="jump0" x1="248.5" x2="283.5" y1="519.5" y2="579.5" />
<line id="j-30003797-30003792" class="jump0" x1="248.5" x2="213.5" y1="519.5" y2="569.5" />
<line id="j-30003800-30003792" class="jump0" x1="248.5" x2="248.5" y1="519.5" y2="479.5" />
<line id="j-30003806-30003792" class="jump0" x1="248.5" x2="178.5" y1="519.5" y2="494.5" />
<line id="j-30003793-30003268" class="jump0" x1="153.5" x2="88.5" y1="524.5" y2="529.5" />
<line id="j-30003795-30003794" class="jump0" x1="283.5" x2="283.5" y1="664.5" y2="579.5" />
<line id="j-30003796-30003795" class="jump0" x1="283.5" x2="168.5" y1="664.5" y2="634.5" />
<line id="j-30003802-30003795" class="jump0" x1="283.5" x2="273.5" y1="664.5" y2="694.5" />
<line id="j-30003797-30003796" class="jump0" x1="168.5" x2="213.5" y1="634.5" y2="569.5" />
<line id="j-30003798-30003796" class="jump0" x1="168.5" x2="228.5" y1="634.5" y2="604.5" />
<line id="j-30003799-30003796" class="jump0" x1="168.5" x2="143.5" y1="634.5" y2="589.5" />
<line id="j-30003797-30003794" class="jump0" x1="213.5" x2="283.5" y1="569.5" y2="579.5" />
<line id="j-30003799-30003797" class="jump0" x1="213.5" x2="143.5" y1="569.5" y2="589.5" />
<line id="j-30003825-30003824" class="jump0" x1="223.5" x2="178.5" y1="404.5" y2="449.5" />
<line id="j-30003826-30003825" class="jump0" x1="223.5" x2="303.5" y1="404.5" y2="399.5" />
<line id="j-30003827-30003825" class="jump0" x1="223.5" x2="148.5" y1="404.5" y2="384.5" />
<line id="j-30003828-30003825" class="jump0" x1="223.5" x2="248.5" y1="404.5" y2="374.5" />
<line id="j-30003828-30003826" class="jump0" x1="303.5" x2="248.5" y1="399.5" y2="374.5" />
<line id="j-30003827-30003824" class="jump0" x1="148.5" x2="178.5" y1="384.5" y2="449.5" />
<line id="j-30003829-30003827" class="jump0" x1="148.5" x2="173.5" y1="384.5" y2="344.5" />
<line id="j-30003833-30003827" class="jump0" x1="148.5" x2="103.5" y1="384.5" y2="414.5" />
<line id="j-30003829-30003828" class="jump0" x1="248.5" x2="173.5" y1="374.5" y2="344.5" />
<line id="j-30003836-30003829" class="jump0" x1="173.5" x2="258.5" y1="344.5" y2="314.5" />
<line id="j-30003837-30003836" class="jump0" x1="258.5" x2="263.5" y1="314.5" y2="279.5" />
<line id="j-30003838-30003836" class="jump0" x1="258.5" x2="333.5" y1="314.5" y2="319.5" />
<line id="j-30003841-30003836" class="jump0" x1="258.5" x2="333.5" y1="314.5" y2="354.5" />
<line id="j-30003839-30003837" class="jump0" x1="263.5" x2="248.5" y1="279.5" y2="244.5" />
<line id="j-30045344-30003837" class="jump0" x1="263.5" x2="523.5" y1="279.5" y2="319.5" />
<line id="j-30045319-30003838" class="jump0" x1="333.5" x2="323.5" y1="319.5" y2="189.5" />
<line id="j-30003840-30003839" class="jump0" x1="248.5" x2="193.5" y1="244.5" y2="214.5" />
<line id="j-30003842-30003840" class="jump0" x1="193.5" x2="198.5" y1="214.5" y2="174.5" />
<line id="j-30003857-30003840" class="jump0" x1="193.5" x2="118.5" y1="214.5" y2="209.5" />
<line id="j-30004046-30003841" class="jump0" x1="333.5" x2="408.5" y1="354.5" y2="344.5" />
<line id="j-30003850-30003835" class="jump0" x1="88.5" x2="98.5" y1="294.5" y2="339.5" />
<line id="j-30003851-30003850" class="jump0" x1="88.5" x2="53.5" y1="294.5" y2="249.5" />
<line id="j-30003852-30003851" class="jump0" x1="53.5" x2="48.5" y1="249.5" y2="214.5" />
<line id="j-30003853-30003851" class="jump0" x1="53.5" x2="128.5" y1="249.5" y2="254.5" />
<line id="j-30003854-30003852" class="jump0" x1="48.5" x2="73.5" y1="214.5" y2="169.5" />
<line id="j-30003857-30003852" class="jump0" x1="48.5" x2="118.5" y1="214.5" y2="209.5" />
<line id="j-30003856-30003853" class="jump0" x1="128.5" x2="158.5" y1="254.5" y2="289.5" />
<line id="j-30003855-30003854" class="jump0" x1="73.5" x2="48.5" y1="169.5" y2="134.5" />
<line id="j-30003857-30003854" class="jump0" x1="73.5" x2="118.5" y1="169.5" y2="209.5" />
<line id="j-30003855-30002039" class="jump0" x1="48.5" x2="28.5" y1="134.5" y2="84.5" />
<line id="j-30004979-30004977" class="jump0" x1="613.5" x2="683.5" y1="579.5" y2="639.5" />
<line id="j-30004980-30004979" class="jump0" x1="613.5" x2="648.5" y1="579.5" y2="539.5" />
<line id="j-30004981-30004979" class="jump0" x1="613.5" x2="693.5" y1="579.5" y2="584.5" />
<line id="j-30004982-30004979" class="jump0" x1="613.5" x2="513.5" y1="579.5" y2="619.5" />
<line id="j-30004984-30004979" class="jump0" x1="613.5" x2="583.5" y1="579.5" y2="514.5" />
<line id="j-30005000-30004979" class="jump0" x1="613.5" x2="593.5" y1="579.5" y2="619.5" />
<line id="j-30004981-30004980" class="jump0" x1="648.5" x2="693.5" y1="539.5" y2="584.5" />
<line id="j-30004985-30004980" class="jump0" x1="648.5" x2="723.5" y1="539.5" y2="539.5" />
<line id="j-30005295-30004982" class="jump0" x1="513.5" x2="298.5" y1="619.5" y2="734.5" />
<line id="j-30045347-30004984" class="jump0" x1="583.5" x2="673.5" y1="514.5" y2="389.5" />
<line id="j-30004997-30004995" class="jump0" x1="618.5" x2="658.5" y1="694.5" y2="724.5" />
<line id="j-30004999-30004997" class="jump0" x1="618.5" x2="593.5" y1="694.5" y2="659.5" />
<line id="j-30005000-30004999" class="jump0" x1="593.5" x2="593.5" y1="659.5" y2="619.5" />
<line id="j-30005008-30004999" class="jump0" x1="593.5" x2="533.5" y1="659.5" y2="694.5" />
<line id="j-30005000-30004993" class="jump0" x1="593.5" x2="738.5" y1="619.5" y2="754.5" />
<line id="j-30005295-30004975" class="jump0" x1="298.5" x2="28.5" y1="734.5" y2="614.5" />
<line id="j-30005296-30005295" class="jump0" x1="298.5" x2="358.5" y1="734.5" y2="604.5" />
<line id="j-30005297-30005296" class="jump0" x1="358.5" x2="423.5" y1="604.5" y2="544.5" />
<line id="j-30005298-30005296" class="jump0" x1="358.5" x2="423.5" y1="604.5" y2="609.5" />
<line id="j-30005300-30005297" class="jump0" x1="423.5" x2="403.5" y1="544.5" y2="499.5" />
<line id="j-30005308-30005297" class="jump0" x1="423.5" x2="478.5" y1="544.5" y2="514.5" />
<line id="j-30005299-30005298" class="jump0" x1="423.5" x2="423.5" y1="609.5" y2="644.5" />
<line id="j-30005320-30005299" class="jump0" x1="423.5" x2="423.5" y1="644.5" y2="699.5" />
<line id="j-30005320-30005319" class="jump0" x1="423.5" x2="388.5" y1="699.5" y2="734.5" />
<line id="j-30005321-30005320" class="jump0" x1="423.5" x2="463.5" y1="699.5" y2="734.5" />
<line id="j-30005321-30005008" class="jump0" x1="463.5" x2="533.5" y1="734.5" y2="694.5" />
<line id="j-30045309-30045306" class="jump0" x1="313.5" x2="233.5" y1="49.5" y2="49.5" />
<line id="j-30045310-30045306" class="jump0" x1="313.5" x2="388.5" y1="49.5" y2="29.5" />
<line id="j-30045311-30045306" class="jump0" x1="313.5" x2="233.5" y1="49.5" y2="94.5" />
<line id="j-30045307-30004055" class="jump0" x1="163.5" x2="103.5" y1="49.5" y2="29.5" />
<line id="j-30045309-30045307" class="jump0" x1="163.5" x2="233.5" y1="49.5" y2="49.5" />
<line id="j-30045313-30045307" class="jump0" x1="163.5" x2="163.5" y1="49.5" y2="94.5" />
<line id="j-30045309-30045308" class="jump0" x1="318.5" x2="233.5" y1="94.5" y2="49.5" />
<line id="j-30045311-30045308" class="jump0" x1="318.5" x2="233.5" y1="94.5" y2="94.5" />
<line id="j-30045318-30045308" class="jump0" x1="318.5" x2="393.5" y1="94.5" y2="109.5" />
<line id="j-30045312-30045309" class="jump0" x1="233.5" x2="233.5" y1="49.5" y2="14.5" />
<line id="j-30045310-30001440" class="jump0" x1="388.5" x2="463.5" y1="29.5" y2="14.5" />
<line id="j-30045313-30045311" class="jump0" x1="233.5" x2="163.5" y1="94.5" y2="94.5" />
<line id="j-30045315-30045314" class="jump0" x1="468.5" x2="473.5" y1="109.5" y2="69.5" />
<line id="j-30045316-30045314" class="jump0" x1="468.5" x2="418.5" y1="109.5" y2="154.5" />
<line id="j-30045318-30045314" class="jump0" x1="468.5" x2="393.5" y1="109.5" y2="109.5" />
<line id="j-30045324-30045314" class="jump0" x1="468.5" x2="588.5" y1="109.5" y2="109.5" />
<line id="j-30045315-30001435" class="jump0" x1="473.5" x2="533.5" y1="69.5" y2="39.5" />
<line id="j-30045317-30045315" class="jump0" x1="473.5" x2="403.5" y1="69.5" y2="69.5" />
<line id="j-30045318-30045316" class="jump0" x1="418.5" x2="393.5" y1="154.5" y2="109.5" />
<line id="j-30045319-30045316" class="jump0" x1="418.5" x2="323.5" y1="154.5" y2="189.5" />
<line id="j-30045320-30045316" class="jump0" x1="418.5" x2="393.5" y1="154.5" y2="204.5" />
<line id="j-30045318-30045317" class="jump0" x1="403.5" x2="393.5" y1="69.5" y2="109.5" />
<line id="j-30045319-30045318" class="jump0" x1="393.5" x2="323.5" y1="109.5" y2="189.5" />
<line id="j-30045340-30045320" class="jump0" x1="393.5" x2="408.5" y1="204.5" y2="259.5" />
<line id="j-30045332-30045330" class="jump0" x1="938.5" x2="863.5" y1="289.5" y2="174.5" />
<line id="j-30045334-30045330" class="jump0" x1="938.5" x2="943.5" y1="289.5" y2="174.5" />
<line id="j-30045354-30045330" class="jump0" x1="938.5" x2="803.5" y1="289.5" y2="309.5" />
<line id="j-30045332-30045331" class="jump0" x1="878.5" x2="863.5" y1="134.5" y2="174.5" />
<line id="j-30045334-30045331" class="jump0" x1="878.5" x2="943.5" y1="134.5" y2="174.5" />
<line id="j-30045335-30045331" class="jump0" x1="878.5" x2="848.5" y1="134.5" y2="99.5" />
<line id="j-30045333-30045332" class="jump0" x1="863.5" x2="788.5" y1="174.5" y2="229.5" />
<line id="j-30045334-30045332" class="jump0" x1="863.5" x2="943.5" y1="174.5" y2="174.5" />
<line id="j-30045336-30045332" class="jump0" x1="863.5" x2="858.5" y1="174.5" y2="234.5" />
<line id="j-30045337-30045332" class="jump0" x1="863.5" x2="778.5" y1="174.5" y2="184.5" />
<line id="j-30045336-30045333" class="jump0" x1="788.5" x2="858.5" y1="229.5" y2="234.5" />
<line id="j-30045337-30045333" class="jump0" x1="788.5" x2="778.5" y1="229.5" y2="184.5" />
<line id="j-30045337-30045322" class="jump0" x1="778.5" x2="698.5" y1="184.5" y2="184.5" />
<line id="j-30045341-30045338" class="jump0" x1="608.5" x2="613.5" y1="344.5" y2="304.5" />
<line id="j-30045343-30045338" class="jump0" x1="608.5" x2="543.5" y1="344.5" y2="374.5" />
<line id="j-30045344-30045338" class="jump0" x1="608.5" x2="523.5" y1="344.5" y2="319.5" />
<line id="j-30045353-30045338" class="jump0" x1="608.5" x2="678.5" y1="344.5" y2="339.5" />
<line id="j-30045341-30045339" class="jump0" x1="563.5" x2="613.5" y1="269.5" y2="304.5" />
<line id="j-30045342-30045339" class="jump0" x1="563.5" x2="483.5" y1="269.5" y2="274.5" />
<line id="j-30045344-30045339" class="jump0" x1="563.5" x2="523.5" y1="269.5" y2="319.5" />
<line id="j-30045342-30045340" class="jump0" x1="408.5" x2="483.5" y1="259.5" y2="274.5" />
<line id="j-30045342-30045329" class="jump0" x1="483.5" x2="523.5" y1="274.5" y2="224.5" />
<line id="j-30045344-30045342" class="jump0" x1="483.5" x2="523.5" y1="274.5" y2="319.5" />
<line id="j-30045344-30045343" class="jump0" x1="543.5" x2="523.5" y1="374.5" y2="319.5" />
<line id="j-30045346-30045345" class="jump0" x1="753.5" x2="828.5" y1="354.5" y2="354.5" />
<line id="j-30045352-30045345" class="jump0" x1="753.5" x2="748.5" y1="354.5" y2="389.5" />
<line id="j-30045353-30045345" class="jump0" x1="753.5" x2="678.5" y1="354.5" y2="339.5" />
<line id="j-30045350-30045346" class="jump0" x1="828.5" x2="893.5" y1="354.5" y2="329.5" />
<line id="j-30045352-30045346" class="jump0" x1="828.5" x2="748.5" y1="354.5" y2="389.5" />
<line id="j-30045354-30045346" class="jump0" x1="828.5" x2="803.5" y1="354.5" y2="309.5" />
<line id="j-30045352-30045347" class="jump0" x1="673.5" x2="748.5" y1="389.5" y2="389.5" />
<line id="j-30045353-30045347" class="jump0" x1="673.5" x2="678.5" y1="389.5" y2="339.5" />
<line id="j-30045352-30045348" class="jump0" x1="703.5" x2="748.5" y1="424.5" y2="389.5" />
<line id="j-30045351-30045349" class="jump0" x1="733.5" x2="713.5" y1="319.5" y2="289.5" />
<line id="j-30045353-30045349" class="jump0" x1="733.5" x2="678.5" y1="319.5" y2="339.5" />
<line id="j-30045354-30045349" class="jump0" x1="733.5" x2="803.5" y1="319.5" y2="309.5" />
<line id="j-30002799-30002795" class="jump0" x1="983.5" x2="988.5" y1="484.5" y2="539.5" />
<line id="j-30003798-30003794" class="jump0" x1="283.5" x2="228.5" y1="579.5" y2="604.5" />
<line id="j-30003831-30003830" class="jump0" x1="43.5" x2="33.5" y1="434.5" y2="394.5" />
<line id="j-30003833-30003830" class="jump0" x1="43.5" x2="103.5" y1="434.5" y2="414.5" />
<line id="j-30004975-30003830" class="jump0" x1="43.5" x2="28.5" y1="434.5" y2="614.5" />
<line id="j-30003832-30003831" class="jump0" x1="33.5" x2="28.5" y1="394.5" y2="354.5" />
<line id="j-30003835-30003831" class="jump0" x1="33.5" x2="98.5" y1="394.5" y2="339.5" />
<line id="j-30003834-30003832" class="jump0" x1="28.5" x2="28.5" y1="354.5" y2="319.5" />
<line id="j-30003835-30003832" class="jump0" x1="28.5" x2="98.5" y1="354.5" y2="339.5" />
<line id="j-30004983-30004981" class="jump0" x1="693.5" x2="768.5" y1="584.5" y2="579.5" />
<line id="j-30004986-30004983" class="jump0" x1="768.5" x2="828.5" y1="579.5" y2="594.5" />
<line id="j-30004995-30004993" class="jump0" x1="738.5" x2="658.5" y1="754.5" y2="724.5" />
<line id="j-30045322-30045321" class="jump0" x1="538.5" x2="698.5" y1="179.5" y2="184.5" />
<line id="j-30045325-30045321" class="jump0" x1="538.5" x2="553.5" y1="179.5" y2="144.5" />
<line id="j-30045329-30045321" class="jump0" x1="538.5" x2="523.5" y1="179.5" y2="224.5" />
<line id="j-30045326-30045322" class="jump0" x1="698.5" x2="663.5" y1="184.5" y2="144.5" />
<line id="j-30045328-30045322" class="jump0" x1="698.5" x2="613.5" y1="184.5" y2="209.5" />
<line id="j-30045326-30045323" class="jump0" x1="718.5" x2="663.5" y1="119.5" y2="144.5" />
<line id="j-30045327-30045323" class="jump0" x1="718.5" x2="663.5" y1="119.5" y2="89.5" />
<line id="j-30045325-30045324" class="jump0" x1="588.5" x2="553.5" y1="109.5" y2="144.5" />
<line id="j-30045326-30045324" class="jump0" x1="588.5" x2="663.5" y1="109.5" y2="144.5" />
<line id="j-30045327-30045324" class="jump0" x1="588.5" x2="663.5" y1="109.5" y2="89.5" />
<line id="j-30045328-30045324" class="jump0" x1="588.5" x2="613.5" y1="109.5" y2="209.5" />
<line id="j-30045329-30045328" class="jump0" x1="613.5" x2="523.5" y1="209.5" y2="224.5" />
</g>
<g id="sysuse">
      <rect class="camp0" height="22" id="rect30003855" rx="11" ry="11" style="stroke-width: 2; stroke: #652506" title="Mantenault" width="50" x="24.0" y="123.5" />
      <text class="ss" text-anchor="middle" x="48.0" y="134.0">Mantenault</text>
      <text class="st" id="txt30003855" text-anchor="middle" x="48.0" y="141.7">0.1</text>
      <rect class="camp0" height="22" id="rect30003852" rx="11" ry="11" style="stroke-width: 2; stroke: #692F0F" title="Arderonne" width="50" x="24.0" y="203.5" />
      <text class="ss" text-anchor="middle" x="48.0" y="214.0">Arderonne</text>
      <text class="st" id="txt30003852" text-anchor="middle" x="48.0" y="221.7">0.2</text>
      <rect class="camp0" height="22" id="rect30003851" rx="11" ry="11" style="stroke-width: 2; stroke: #652506" title="Reschard" width="50" x="29.0" y="238.5" />
      <text class="ss" text-anchor="middle" x="53.0" y="249.0">Reschard</text>
      <text class="st" id="txt30003851" text-anchor="middle" x="53.0" y="256.7">0.1</text>
      <rect class="camp0" height="22" id="rect30003854" rx="11" ry="11" style="stroke-width: 2; stroke: #692F0F" title="Alamel" width="50" x="49.0" y="158.5" />
      <text class="ss" text-anchor="middle" x="73.0" y="169.0">Alamel</text>
      <text class="st" id="txt30003854" text-anchor="middle" x="73.0" y="176.7">0.2</text>
      <rect class="camp0" height="22" id="rect30003850" rx="11" ry="11" style="stroke-width: 2; stroke: #652506" title="Alparena" width="50" x="64.0" y="283.5" />
      <text class="ss" text-anchor="middle" x="88.0" y="294.0">Alparena</text>
      <text class="st" id="txt30003850" text-anchor="middle" x="88.0" y="301.7">0.1</text>
      <rect class="camp0" height="22" id="rect30003857" rx="11" ry="11" style="stroke-width: 2; stroke: #692F0F" title="Odamia" width="50" x="94.0" y="198.5" />
      <text class="ss" text-anchor="middle" x="118.0" y="209.0">Odamia</text>
      <text class="st" id="txt30003857" text-anchor="middle" x="118.0" y="216.7">0.2</text>
      <rect class="camp0" height="22" id="rect30003853" rx="11" ry="11" style="stroke-width: 2; stroke: #652506" title="Mercomesier" width="50" x="104.0" y="243.5" />
      <text class="ss" text-anchor="middle" x="128.0" y="254.0">Mercomesier</text>
      <text class="st" id="txt30003853" text-anchor="middle" x="128.0" y="261.7">0.1</text>
      <rect class="camp0" height="22" id="rect30003799" rx="11" ry="11" style="stroke-width: 2; stroke: #692F0F" title="Uphallant" width="50" x="119.0" y="578.5" />
      <text class="ss" text-anchor="middle" x="143.0" y="589.0">Uphallant</text>
      <text class="st" id="txt30003799" text-anchor="middle" x="143.0" y="596.7">0.2</text>
      <rect class="camp0" height="22" id="rect30003827" rx="11" ry="11" style="stroke-width: 2; stroke: #6D5A18" title="Aubenall" width="50" x="124.0" y="373.5" />
      <text class="ss" text-anchor="middle" x="148.0" y="384.0">Aubenall</text>
      <text class="st" id="txt30003827" text-anchor="middle" x="148.0" y="391.7">0.4</text>
      <rect class="camp0" height="22" id="rect30003793" rx="11" ry="11" style="stroke-width: 2; stroke: #652506" title="Harroule" width="50" x="129.0" y="513.5" />
      <text class="ss" text-anchor="middle" x="153.0" y="524.0">Harroule</text>
      <text class="st" id="txt30003793" text-anchor="middle" x="153.0" y="531.7">0.1</text>
      <rect class="camp0" height="22" id="rect30003856" rx="11" ry="11" style="stroke-width: 2; stroke: #652506" title="Athounon" width="50" x="134.0" y="278.5" />
      <text class="ss" text-anchor="middle" x="158.0" y="289.0">Athounon</text>
      <text class="st" id="txt30003856" text-anchor="middle" x="158.0" y="296.7">0.1</text>
      <rect class="camp0" height="22" id="rect30045307" rx="11" ry="11" style="stroke-width: 2; stroke: #652506" title="Okagaiken" width="50" x="139.0" y="38.5" />
      <text class="ss" text-anchor="middle" x="163.0" y="49.0">Okagaiken</text>
      <text class="st" id="txt30045307" text-anchor="middle" x="163.0" y="56.7">0.1</text>
      <rect class="camp0" height="22" id="rect30045313" rx="11" ry="11" style="stroke-width: 2; stroke: #652506" title="Ienakkamon" width="50" x="139.0" y="83.5" />
      <text class="ss" text-anchor="middle" x="163.0" y="94.0">Ienakkamon</text>
      <text class="st" id="txt30045313" text-anchor="middle" x="163.0" y="101.7">0.1</text>
      <rect class="camp0" height="22" id="rect30003796" rx="11" ry="11" style="stroke-width: 2; stroke: #6C421D" title="Iges" width="50" x="144.0" y="623.5" />
      <text class="ss" text-anchor="middle" x="168.0" y="634.0">Iges</text>
      <text class="st" id="txt30003796" text-anchor="middle" x="168.0" y="641.7">0.3</text>
      <rect class="camp0" height="22" id="rect30003829" rx="11" ry="11" style="stroke-width: 2; stroke: #6C421D" title="Renarelle" width="50" x="149.0" y="333.5" />
      <text class="ss" text-anchor="middle" x="173.0" y="344.0">Renarelle</text>
      <text class="st" id="txt30003829" text-anchor="middle" x="173.0" y="351.7">0.3</text>
      <rect class="camp0" height="22" id="rect30003840" rx="11" ry="11" style="stroke-width: 2; stroke: #6C421D" title="Anchauttes" width="50" x="169.0" y="203.5" />
      <text class="ss" text-anchor="middle" x="193.0" y="214.0">Anchauttes</text>
      <text class="st" id="txt30003840" text-anchor="middle" x="193.0" y="221.7">0.3</text>
      <rect class="camp0" height="22" id="rect30003842" rx="11" ry="11" style="stroke-width: 2; stroke: #6C421D" title="Esesier" width="50" x="174.0" y="163.5" />
      <text class="ss" text-anchor="middle" x="198.0" y="174.0">Esesier</text>
      <text class="st" id="txt30003842" text-anchor="middle" x="198.0" y="181.7">0.3</text>
      <rect class="camp0" height="22" id="rect30003797" rx="11" ry="11" style="stroke-width: 2; stroke: #6C421D" title="Dastryns" width="50" x="189.0" y="558.5" />
      <text class="ss" text-anchor="middle" x="213.0" y="569.0">Dastryns</text>
      <text class="st" id="txt30003797" text-anchor="middle" x="213.0" y="576.7">0.3</text>
      <rect class="camp0" height="22" id="rect30003825" rx="11" ry="11" style="stroke-width: 2; stroke: #6D5A18" title="Eugales" width="50" x="199.0" y="393.5" />
      <text class="ss" text-anchor="middle" x="223.0" y="404.0">Eugales</text>
      <text class="st" id="txt30003825" text-anchor="middle" x="223.0" y="411.7">0.4</text>
      <rect class="camp0" height="22" id="rect30045312" rx="11" ry="11" style="stroke-width: 2; stroke: #652506" title="Korasen" width="50" x="209.0" y="3.5" />
      <text class="ss" text-anchor="middle" x="233.0" y="14.0">Korasen</text>
      <text class="st" id="txt30045312" text-anchor="middle" x="233.0" y="21.7">0.1</text>
      <rect class="camp0" height="22" id="rect30045309" rx="11" ry="11" style="stroke-width: 2; stroke: #652506" title="Villasen" width="50" x="209.0" y="38.5" />
      <text class="ss" text-anchor="middle" x="233.0" y="49.0">Villasen</text>
      <text class="st" id="txt30045309" text-anchor="middle" x="233.0" y="56.7">0.1</text>
      <rect class="camp0" height="22" id="rect30045311" rx="11" ry="11" style="stroke-width: 2; stroke: #6C421D" title="Ashitsu" width="50" x="209.0" y="83.5" />
      <text class="ss" text-anchor="middle" x="233.0" y="94.0">Ashitsu</text>
      <text class="st" id="txt30045311" text-anchor="middle" x="233.0" y="101.7">0.3</text>
      <rect class="camp0" height="22" id="rect30003839" rx="11" ry="11" style="stroke-width: 2; stroke: #6D5A18" title="Evaulon" width="50" x="224.0" y="233.5" />
      <text class="ss" text-anchor="middle" x="248.0" y="244.0">Evaulon</text>
      <text class="st" id="txt30003839" text-anchor="middle" x="248.0" y="251.7">0.4</text>
      <rect class="camp0" height="22" id="rect30003828" rx="11" ry="11" style="stroke-width: 2; stroke: #6D5A18" title="Moclinamaud" width="50" x="224.0" y="363.5" />
      <text class="ss" text-anchor="middle" x="248.0" y="374.0">Moclinamaud</text>
      <text class="st" id="txt30003828" text-anchor="middle" x="248.0" y="381.7">0.4</text>
      <rect class="camp0" height="22" id="rect30003792" rx="11" ry="11" style="stroke-width: 2; stroke: #692F0F" title="Ostingele" width="50" x="224.0" y="508.5" />
      <text class="ss" text-anchor="middle" x="248.0" y="519.0">Ostingele</text>
      <text class="st" id="txt30003792" text-anchor="middle" x="248.0" y="526.7">0.2</text>
      <rect class="camp0" height="22" id="rect30003836" rx="11" ry="11" style="stroke-width: 2; stroke: #6C421D" title="Vlillirier" width="50" x="234.0" y="303.5" />
      <text class="ss" text-anchor="middle" x="258.0" y="314.0">Vlillirier</text>
      <text class="st" id="txt30003836" text-anchor="middle" x="258.0" y="321.7">0.3</text>
      <rect class="camp0" height="22" id="rect30003837" rx="11" ry="11" style="stroke-width: 2; stroke: #6D5A18" title="Aldranette" width="50" x="239.0" y="268.5" />
      <text class="ss" text-anchor="middle" x="263.0" y="279.0">Aldranette</text>
      <text class="st" id="txt30003837" text-anchor="middle" x="263.0" y="286.7">0.4</text>
      <rect class="camp0" height="22" id="rect30003795" rx="11" ry="11" style="stroke-width: 2; stroke: #6D5A18" title="Covryn" width="50" x="259.0" y="653.5" />
      <text class="ss" text-anchor="middle" x="283.0" y="664.0">Covryn</text>
      <text class="st" id="txt30003795" text-anchor="middle" x="283.0" y="671.7">0.4</text>
      <rect class="camp0" height="22" id="rect30005295" rx="11" ry="11" style="stroke-width: 2; stroke: #6C421D" title="Murethand" width="50" x="274.0" y="723.5" />
      <text class="ss" text-anchor="middle" x="298.0" y="734.0">Murethand</text>
      <text class="st" id="txt30005295" text-anchor="middle" x="298.0" y="741.7">0.3</text>
      <rect class="camp0" height="22" id="rect30003826" rx="11" ry="11" style="stroke-width: 2; stroke: #6D5A18" title="Frarie" width="50" x="279.0" y="388.5" />
      <text class="ss" text-anchor="middle" x="303.0" y="399.0">Frarie</text>
      <text class="st" id="txt30003826" text-anchor="middle" x="303.0" y="406.7">0.4</text>
      <rect class="camp0" height="22" id="rect30045306" rx="11" ry="11" style="stroke-width: 2; stroke: #692F0F" title="Hykanima" width="50" x="289.0" y="38.5" />
      <text class="ss" text-anchor="middle" x="313.0" y="49.0">Hykanima</text>
      <text class="st" id="txt30045306" text-anchor="middle" x="313.0" y="56.7">0.2</text>
      <rect class="camp0" height="22" id="rect30045308" rx="11" ry="11" style="stroke-width: 2; stroke: #692F0F" title="Kehjari" width="50" x="294.0" y="83.5" />
      <text class="ss" text-anchor="middle" x="318.0" y="94.0">Kehjari</text>
      <text class="st" id="txt30045308" text-anchor="middle" x="318.0" y="101.7">0.2</text>
      <rect class="camp0" height="22" id="rect30045319" rx="11" ry="11" style="stroke-width: 2; stroke: #6D5A18" title="Eha" width="50" x="299.0" y="178.5" />
      <text class="ss" text-anchor="middle" x="323.0" y="189.0">Eha</text>
      <text class="st" id="txt30045319" text-anchor="middle" x="323.0" y="196.7">0.4</text>
      <rect class="camp0" height="22" id="rect30003838" rx="11" ry="11" style="stroke-width: 2; stroke: #6C421D" title="Oicx" width="50" x="309.0" y="308.5" />
      <text class="ss" text-anchor="middle" x="333.0" y="319.0">Oicx</text>
      <text class="st" id="txt30003838" text-anchor="middle" x="333.0" y="326.7">0.3</text>
      <rect class="camp0" height="22" id="rect30003841" rx="11" ry="11" style="stroke-width: 2; stroke: #6C421D" title="Alsavoinon" width="50" x="309.0" y="343.5" />
      <text class="ss" text-anchor="middle" x="333.0" y="354.0">Alsavoinon</text>
      <text class="st" id="txt30003841" text-anchor="middle" x="333.0" y="361.7">0.3</text>
      <rect class="camp0" height="22" id="rect30005296" rx="11" ry="11" style="stroke-width: 2; stroke: #6C421D" title="Melmaniel" width="50" x="334.0" y="593.5" />
      <text class="ss" text-anchor="middle" x="358.0" y="604.0">Melmaniel</text>
      <text class="st" id="txt30005296" text-anchor="middle" x="358.0" y="611.7">0.3</text>
      <rect class="camp0" height="22" id="rect30003790" rx="11" ry="11" style="stroke-width: 2; stroke: #692F0F" title="Vey" width="50" x="339.0" y="413.5" />
      <text class="ss" text-anchor="middle" x="363.0" y="424.0">Vey</text>
      <text class="st" id="txt30003790" text-anchor="middle" x="363.0" y="431.7">0.2</text>
      <rect class="camp0" height="22" id="rect30003787" rx="11" ry="11" style="stroke-width: 2; stroke: #692F0F" title="Agoze" width="50" x="349.0" y="453.5" />
      <text class="ss" text-anchor="middle" x="373.0" y="464.0">Agoze</text>
      <text class="st" id="txt30003787" text-anchor="middle" x="373.0" y="471.7">0.2</text>
      <rect class="camp0" height="22" id="rect30045310" rx="11" ry="11" style="stroke-width: 2; stroke: #692F0F" title="Sarenemi" width="50" x="364.0" y="18.5" />
      <text class="ss" text-anchor="middle" x="388.0" y="29.0">Sarenemi</text>
      <text class="st" id="txt30045310" text-anchor="middle" x="388.0" y="36.7">0.2</text>
      <rect class="camp0" height="22" id="rect30045318" rx="11" ry="11" style="stroke-width: 2; stroke: #6D5A18" title="Martoh" width="50" x="369.0" y="98.5" />
      <text class="ss" text-anchor="middle" x="393.0" y="109.0">Martoh</text>
      <text class="st" id="txt30045318" text-anchor="middle" x="393.0" y="116.7">0.4</text>
      <rect class="camp0" height="22" id="rect30045320" rx="11" ry="11" style="stroke-width: 2; stroke: #6D5A18" title="Pavanakka" width="50" x="369.0" y="193.5" />
      <text class="ss" text-anchor="middle" x="393.0" y="204.0">Pavanakka</text>
      <text class="st" id="txt30045320" text-anchor="middle" x="393.0" y="211.7">0.4</text>
      <rect class="camp0" height="22" id="rect30045317" rx="11" ry="11" style="stroke-width: 2; stroke: #6C421D" title="Iralaja" width="50" x="379.0" y="58.5" />
      <text class="ss" text-anchor="middle" x="403.0" y="69.0">Iralaja</text>
      <text class="st" id="txt30045317" text-anchor="middle" x="403.0" y="76.7">0.3</text>
      <rect class="camp0" height="22" id="rect30005300" rx="11" ry="11" style="stroke-width: 2; stroke: #6C421D" title="Loes" width="50" x="379.0" y="488.5" />
      <text class="ss" text-anchor="middle" x="403.0" y="499.0">Loes</text>
      <text class="st" id="txt30005300" text-anchor="middle" x="403.0" y="506.7">0.3</text>
      <rect class="camp0" height="22" id="rect30045340" rx="11" ry="11" style="stroke-width: 2; stroke: #6D5A18" title="Aivonen" width="50" x="384.0" y="248.5" />
      <text class="ss" text-anchor="middle" x="408.0" y="259.0">Aivonen</text>
      <text class="st" id="txt30045340" text-anchor="middle" x="408.0" y="266.7">0.4</text>
      <rect class="camp0" height="22" id="rect30045316" rx="11" ry="11" style="stroke-width: 2; stroke: #6C421D" title="Innia" width="50" x="394.0" y="143.5" />
      <text class="ss" text-anchor="middle" x="418.0" y="154.0">Innia</text>
      <text class="st" id="txt30045316" text-anchor="middle" x="418.0" y="161.7">0.3</text>
      <rect class="camp0" height="22" id="rect30005297" rx="11" ry="11" style="stroke-width: 2; stroke: #6D5A18" title="Ouelletta" width="50" x="399.0" y="533.5" />
      <text class="ss" text-anchor="middle" x="423.0" y="544.0">Ouelletta</text>
      <text class="st" id="txt30005297" text-anchor="middle" x="423.0" y="551.7">0.4</text>
      <rect class="camp0" height="22" id="rect30005298" rx="11" ry="11" style="stroke-width: 2; stroke: #692F0F" title="Costolle" width="50" x="399.0" y="598.5" />
      <text class="ss" text-anchor="middle" x="423.0" y="609.0">Costolle</text>
      <text class="st" id="txt30005298" text-anchor="middle" x="423.0" y="616.7">0.2</text>
      <rect class="camp0" height="22" id="rect30005299" rx="11" ry="11" style="stroke-width: 2; stroke: #692F0F" title="Muetralle" width="50" x="399.0" y="633.5" />
      <text class="ss" text-anchor="middle" x="423.0" y="644.0">Muetralle</text>
      <text class="st" id="txt30005299" text-anchor="middle" x="423.0" y="651.7">0.2</text>
      <rect class="camp0" height="22" id="rect30005320" rx="11" ry="11" style="stroke-width: 2; stroke: #6D5A18" title="Hevrice" width="50" x="399.0" y="688.5" />
	  <text class="ss" text-anchor="middle" x="423.0" y="699.0">Hevrice</text>
      <text class="st" id="txt30005320" text-anchor="middle" x="423.0" y="706.7">0.4</text>
      <rect class="camp0" height="22" id="rect30003788" rx="11" ry="11" style="stroke-width: 2; stroke: #652506" title="Intaki" width="50" x="404.0" y="408.5" />
      <text class="ss" text-anchor="middle" x="428.0" y="419.0">Intaki</text>
      <text class="st" id="txt30003788" text-anchor="middle" x="428.0" y="426.7">0.1</text>
      <rect class="camp0" height="22" id="rect30003791" rx="11" ry="11" style="stroke-width: 2; stroke: #652506" title="Annancale" width="50" x="424.0" y="458.5" />
      <text class="ss" text-anchor="middle" x="448.0" y="469.0">Annancale</text>
      <text class="st" id="txt30003791" text-anchor="middle" x="448.0" y="476.7">0.1</text>
      <rect class="camp0" height="22" id="rect30005321" rx="11" ry="11" style="stroke-width: 2; stroke: #6C421D" title="Jovainnon" width="50" x="439.0" y="723.5" />
      <text class="ss" text-anchor="middle" x="463.0" y="734.0">Jovainnon</text>
      <text class="st" id="txt30005321" text-anchor="middle" x="463.0" y="741.7">0.3</text>
      <rect class="camp0" height="22" id="rect30045314" rx="11" ry="11" style="stroke-width: 2; stroke: #6D5A18" title="Kinakka" width="50" x="444.0" y="98.5" />
      <text class="ss" text-anchor="middle" x="468.0" y="109.0">Kinakka</text>
      <text class="st" id="txt30045314" text-anchor="middle" x="468.0" y="116.7">0.4</text>
      <rect class="camp0" height="22" id="rect30045315" rx="11" ry="11" style="stroke-width: 2; stroke: #6D5A18" title="Raihbaka" width="50" x="449.0" y="58.5" />
      <text class="ss" text-anchor="middle" x="473.0" y="69.0">Raihbaka</text>
      <text class="st" id="txt30045315" text-anchor="middle" x="473.0" y="76.7">0.4</text>
      <rect class="camp0" height="22" id="rect30045342" rx="11" ry="11" style="stroke-width: 2; stroke: #6D5A18" title="Akidagi" width="50" x="459.0" y="263.5" />
      <text class="ss" text-anchor="middle" x="483.0" y="274.0">Akidagi</text>
      <text class="st" id="txt30045342" text-anchor="middle" x="483.0" y="281.7">0.4</text>
      <rect class="camp0" height="22" id="rect30004982" rx="11" ry="11" style="stroke-width: 2; stroke: #692F0F" title="Indregulle" width="50" x="489.0" y="608.5" />
      <text class="ss" text-anchor="middle" x="513.0" y="619.0">Indregulle</text>
      <text class="st" id="txt30004982" text-anchor="middle" x="513.0" y="626.7">0.2</text>
      <rect class="camp0" height="22" id="rect30003789" rx="11" ry="11" style="stroke-width: 2; stroke: #652506" title="Brarel" width="50" x="494.0" y="423.5" />
      <text class="ss" text-anchor="middle" x="518.0" y="434.0">Brarel</text>
      <text class="st" id="txt30003789" text-anchor="middle" x="518.0" y="441.7">0.1</text>
      <rect class="camp0" height="22" id="rect30045344" rx="11" ry="11" style="stroke-width: 2; stroke: #6C421D" title="Nennamaila" width="50" x="499.0" y="308.5" />
      <text class="ss" text-anchor="middle" x="523.0" y="319.0">Nennamaila</text>
      <text class="st" id="txt30045344" text-anchor="middle" x="523.0" y="326.7">0.3</text>
      <rect class="camp0" height="22" id="rect30045343" rx="11" ry="11" style="stroke-width: 2; stroke: #6D5A18" title="Immuri" width="50" x="519.0" y="363.5" />
      <text class="ss" text-anchor="middle" x="543.0" y="374.0">Immuri</text>
      <text class="st" id="txt30045343" text-anchor="middle" x="543.0" y="381.7">0.4</text>
      <rect class="camp0" height="22" id="rect30045339" rx="11" ry="11" style="stroke-width: 2; stroke: #6C421D" title="Enaluri" width="50" x="539.0" y="258.5" />
      <text class="ss" text-anchor="middle" x="563.0" y="269.0">Enaluri</text>
      <text class="st" id="txt30045339" text-anchor="middle" x="563.0" y="276.7">0.3</text>
      <rect class="camp0" height="22" id="rect30004984" rx="11" ry="11" style="stroke-width: 2; stroke: #6C421D" title="Abune" width="50" x="559.0" y="503.5" />
      <text class="ss" text-anchor="middle" x="583.0" y="514.0">Abune</text>
      <text class="st" id="txt30004984" text-anchor="middle" x="583.0" y="521.7">0.3</text>
      <rect class="camp0" height="22" id="rect30005000" rx="11" ry="11" style="stroke-width: 2; stroke: #6C421D" title="Old Man Star" width="50" x="569.0" y="608.5" />
      <text class="ss" text-anchor="middle" x="593.0" y="619.0">Old Man Star</text>
      <text class="st" id="txt30005000" text-anchor="middle" x="593.0" y="626.7">0.3</text>
      <rect class="camp0" height="22" id="rect30004999" rx="11" ry="11" style="stroke-width: 2; stroke: #6C421D" title="Ladistier" width="50" x="569.0" y="648.5" />
      <text class="ss" text-anchor="middle" x="593.0" y="659.0">Ladistier</text>
      <text class="st" id="txt30004999" text-anchor="middle" x="593.0" y="666.7">0.3</text>
      <rect class="camp0" height="22" id="rect30045338" rx="11" ry="11" style="stroke-width: 2; stroke: #6C421D" title="Hikkoken" width="50" x="584.0" y="333.5" />
      <text class="ss" text-anchor="middle" x="608.0" y="344.0">Hikkoken</text>
      <text class="st" id="txt30045338" text-anchor="middle" x="608.0" y="351.7">0.3</text>
      <rect class="camp0" height="22" id="rect30045341" rx="11" ry="11" style="stroke-width: 2; stroke: #6D5A18" title="Hallanen" width="50" x="589.0" y="293.5" />
      <text class="ss" text-anchor="middle" x="613.0" y="304.0">Hallanen</text>
      <text class="st" id="txt30045341" text-anchor="middle" x="613.0" y="311.7">0.4</text>
      <rect class="camp0" height="22" id="rect30004979" rx="11" ry="11" style="stroke-width: 2; stroke: #6C421D" title="Heydieles" width="50" x="589.0" y="568.5" />
      <text class="ss" text-anchor="middle" x="613.0" y="579.0">Heydieles</text>
      <text class="st" id="txt30004979" text-anchor="middle" x="613.0" y="586.7">0.3</text>
      <rect class="camp0" height="22" id="rect30004997" rx="11" ry="11" style="stroke-width: 2; stroke: #6D5A18" title="Vifrevaert" width="50" x="594.0" y="683.5" />
      <text class="ss" text-anchor="middle" x="618.0" y="694.0">Vifrevaert</text>
      <text class="st" id="txt30004997" text-anchor="middle" x="618.0" y="701.7">0.4</text>
      <rect class="camp0" height="22" id="rect30004980" rx="11" ry="11" style="stroke-width: 2; stroke: #6C421D" title="Fliet" width="50" x="624.0" y="528.5" />
      <text class="ss" text-anchor="middle" x="648.0" y="539.0">Fliet</text>
      <text class="st" id="txt30004980" text-anchor="middle" x="648.0" y="546.7">0.3</text>
      <rect class="camp0" height="22" id="rect30045347" rx="11" ry="11" style="stroke-width: 2; stroke: #692F0F" title="Oinasiken" width="50" x="649.0" y="378.5" />
      <text class="ss" text-anchor="middle" x="673.0" y="389.0">Oinasiken</text>
      <text class="st" id="txt30045347" text-anchor="middle" x="673.0" y="396.7">0.2</text>
      <rect class="camp0" height="22" id="rect30045353" rx="11" ry="11" style="stroke-width: 2; stroke: #692F0F" title="Pynekastoh" width="50" x="654.0" y="328.5" />
      <text class="ss" text-anchor="middle" x="678.0" y="339.0">Pynekastoh</text>
      <text class="st" id="txt30045353" text-anchor="middle" x="678.0" y="346.7">0.2</text>
      <rect class="camp0" height="22" id="rect30045348" rx="11" ry="11" style="stroke-width: 2; stroke: #692F0F" title="Notoras" width="50" x="679.0" y="413.5" />
      <text class="ss" text-anchor="middle" x="703.0" y="424.0">Notoras</text>
      <text class="st" id="txt30045348" text-anchor="middle" x="703.0" y="431.7">0.2</text>
      <rect class="camp0" height="22" id="rect30002808" rx="11" ry="11" style="stroke-width: 2; stroke: #6D5A18" title="Oto" width="50" x="684.0" y="468.5" />
      <text class="ss" text-anchor="middle" x="708.0" y="479.0">Oto</text>
      <text class="st" id="txt30002808" text-anchor="middle" x="708.0" y="486.7">0.4</text>
      <rect class="camp0" height="22" id="rect30045351" rx="11" ry="11" style="stroke-width: 2; stroke: #692F0F" title="Iwisoda" width="50" x="689.0" y="278.5" />
      <text class="ss" text-anchor="middle" x="713.0" y="289.0">Iwisoda</text>
      <text class="st" id="txt30045351" text-anchor="middle" x="713.0" y="296.7">0.2</text>
      <rect class="camp0" height="22" id="rect30004985" rx="11" ry="11" style="stroke-width: 2; stroke: #6C421D" title="Deven" width="50" x="699.0" y="528.5" />
      <text class="ss" text-anchor="middle" x="723.0" y="539.0">Deven</text>
      <text class="st" id="txt30004985" text-anchor="middle" x="723.0" y="546.7">0.3</text>
      <rect class="camp0" height="22" id="rect30045349" rx="11" ry="11" style="stroke-width: 2; stroke: #692F0F" title="Rakapas" width="50" x="709.0" y="308.5" />
      <text class="ss" text-anchor="middle" x="733.0" y="319.0">Rakapas</text>
      <text class="st" id="txt30045349" text-anchor="middle" x="733.0" y="326.7">0.2</text>
      <rect class="camp0" height="22" id="rect30045352" rx="11" ry="11" style="stroke-width: 2; stroke: #6C421D" title="Nisuwa" width="50" x="724.0" y="378.5" />
      <text class="ss" text-anchor="middle" x="748.0" y="389.0">Nisuwa</text>
      <text class="st" id="txt30045352" text-anchor="middle" x="748.0" y="396.7">0.3</text>
      <rect class="camp0" height="22" id="rect30045345" rx="11" ry="11" style="stroke-width: 2; stroke: #6C421D" title="Hirri" width="50" x="729.0" y="343.5" />
      <text class="ss" text-anchor="middle" x="753.0" y="354.0">Hirri</text>
      <text class="st" id="txt30045345" text-anchor="middle" x="753.0" y="361.7">0.3</text>
      <rect class="camp0" height="22" id="rect30045337" rx="11" ry="11" style="stroke-width: 2; stroke: #6C421D" title="Ikoskio" width="50" x="754.0" y="173.5" />
      <text class="ss" text-anchor="middle" x="778.0" y="184.0">Ikoskio</text>
      <text class="st" id="txt30045337" text-anchor="middle" x="778.0" y="191.7">0.3</text>
      <rect class="camp0" height="22" id="rect30002807" rx="11" ry="11" style="stroke-width: 2; stroke: #6C421D" title="Nagamanen" width="50" x="754.0" y="468.5" />
      <text class="ss" text-anchor="middle" x="778.0" y="479.0">Nagamanen</text>
      <text class="st" id="txt30002807" text-anchor="middle" x="778.0" y="486.7">0.3</text>
      <rect class="camp0" height="22" id="rect30002809" rx="11" ry="11" style="stroke-width: 2; stroke: #6C421D" title="Sujarento" width="50" x="759.0" y="413.5" />
      <text class="ss" text-anchor="middle" x="783.0" y="424.0">Sujarento</text>
      <text class="st" id="txt30002809" text-anchor="middle" x="783.0" y="431.7">0.3</text>
      <rect class="camp0" height="22" id="rect30045333" rx="11" ry="11" style="stroke-width: 2; stroke: #692F0F" title="Prism" width="50" x="764.0" y="218.5" />
      <text class="ss" text-anchor="middle" x="788.0" y="229.0">Prism</text>
      <text class="st" id="txt30045333" text-anchor="middle" x="788.0" y="236.7">0.2</text>
      <rect class="camp0" height="22" id="rect30002758" rx="11" ry="11" style="stroke-width: 2; stroke: #6C421D" title="Hasama" width="50" x="774.0" y="18.5" />
      <text class="ss" text-anchor="middle" x="798.0" y="29.0">Hasama</text>
      <text class="st" id="txt30002758" text-anchor="middle" x="798.0" y="36.7">0.3</text>
      <rect class="camp0" height="22" id="rect30045354" rx="11" ry="11" style="stroke-width: 2; stroke: #692F0F" title="Reitsato" width="50" x="779.0" y="298.5" />
      <text class="ss" text-anchor="middle" x="803.0" y="309.0">Reitsato</text>
      <text class="st" id="txt30045354" text-anchor="middle" x="803.0" y="316.7">0.2</text>
      <rect class="camp0" height="22" id="rect30002813" rx="11" ry="11" style="stroke-width: 2; stroke: #6C421D" title="Tama" width="50" x="799.0" y="378.5" />
      <text class="ss" text-anchor="middle" x="823.0" y="389.0">Tama</text>
      <text class="st" id="txt30002813" text-anchor="middle" x="823.0" y="396.7">0.3</text>
      <rect class="camp0" height="22" id="rect30045346" rx="11" ry="11" style="stroke-width: 2; stroke: #6C421D" title="Kedama" width="50" x="804.0" y="343.5" />
      <text class="ss" text-anchor="middle" x="828.0" y="354.0">Kedama</text>
      <text class="st" id="txt30045346" text-anchor="middle" x="828.0" y="361.7">0.3</text>
      <rect class="camp0" height="22" id="rect30002806" rx="11" ry="11" style="stroke-width: 2; stroke: #6C421D" title="Hasmijaala" width="50" x="809.0" y="483.5" />
      <text class="ss" text-anchor="middle" x="833.0" y="494.0">Hasmijaala</text>
      <text class="st" id="txt30002806" text-anchor="middle" x="833.0" y="501.7">0.3</text>
      <rect class="camp0" height="22" id="rect30045335" rx="11" ry="11" style="stroke-width: 2; stroke: #6C421D" title="Teskanen" width="50" x="824.0" y="88.5" />
      <text class="ss" text-anchor="middle" x="848.0" y="99.0">Teskanen</text>
      <text class="st" id="txt30045335" text-anchor="middle" x="848.0" y="106.7">0.3</text>
      <rect class="camp0" height="22" id="rect30045336" rx="11" ry="11" style="stroke-width: 2; stroke: #6C421D" title="Elunala" width="50" x="834.0" y="223.5" />
      <text class="ss" text-anchor="middle" x="858.0" y="234.0">Elunala</text>
      <text class="st" id="txt30045336" text-anchor="middle" x="858.0" y="241.7">0.3</text>
      <rect class="camp0" height="22" id="rect30045332" rx="11" ry="11" style="stroke-width: 2; stroke: #6C421D" title="Asakai" width="50" x="839.0" y="163.5" />
      <text class="ss" text-anchor="middle" x="863.0" y="174.0">Asakai</text>
      <text class="st" id="txt30045332" text-anchor="middle" x="863.0" y="181.7">0.3</text>
      <rect class="camp0" height="22" id="rect30002757" rx="11" ry="11" style="stroke-width: 2; stroke: #6D5A18" title="Nikkishina" width="50" x="844.0" y="33.5" />
      <text class="ss" text-anchor="middle" x="868.0" y="44.0">Nikkishina</text>
      <text class="st" id="txt30002757" text-anchor="middle" x="868.0" y="51.7">0.4</text>
      <rect class="camp0" height="22" id="rect30045331" rx="11" ry="11" style="stroke-width: 2; stroke: #6C421D" title="Vaaralen" width="50" x="854.0" y="123.5" />
      <text class="ss" text-anchor="middle" x="878.0" y="134.0">Vaaralen</text>
      <text class="st" id="txt30045331" text-anchor="middle" x="878.0" y="141.7">0.3</text>
      <rect class="camp0" height="22" id="rect30002811" rx="11" ry="11" style="stroke-width: 2; stroke: #6C421D" title="Onatoh" width="50" x="859.0" y="403.5" />
      <text class="ss" text-anchor="middle" x="883.0" y="414.0">Onatoh</text>
      <text class="st" id="txt30002811" text-anchor="middle" x="883.0" y="421.7">0.3</text>
      <rect class="camp0" height="22" id="rect30045350" rx="11" ry="11" style="stroke-width: 2; stroke: #6C421D" title="Teimo" width="50" x="869.0" y="318.5" />
      <text class="ss" text-anchor="middle" x="893.0" y="329.0">Teimo</text>
      <text class="st" id="txt30045350" text-anchor="middle" x="893.0" y="336.7">0.3</text>
      <rect class="camp0" height="22" id="rect30002810" rx="11" ry="11" style="stroke-width: 2; stroke: #6C421D" title="Eranakko" width="50" x="884.0" y="443.5" />
      <text class="ss" text-anchor="middle" x="908.0" y="454.0">Eranakko</text>
      <text class="st" id="txt30002810" text-anchor="middle" x="908.0" y="461.7">0.3</text>
      <rect class="camp0" height="22" id="rect30002796" rx="11" ry="11" style="stroke-width: 2; stroke: #6D5A18" title="Hysera" width="50" x="889.0" y="498.5" />
      <text class="ss" text-anchor="middle" x="913.0" y="509.0">Hysera</text>
      <text class="st" id="txt30002796" text-anchor="middle" x="913.0" y="516.7">0.4</text>
      <rect class="camp0" height="22" id="rect30002756" rx="11" ry="11" style="stroke-width: 2; stroke: #6D5A18" title="Ishomilken" width="50" x="909.0" y="43.5" />
      <text class="ss" text-anchor="middle" x="933.0" y="54.0">Ishomilken</text>
      <text class="st" id="txt30002756" text-anchor="middle" x="933.0" y="61.7">0.4</text>
      <rect class="camp0" height="22" id="rect30045330" rx="11" ry="11" style="stroke-width: 2; stroke: #6C421D" title="Okkamon" width="50" x="914.0" y="278.5" />
      <text class="ss" text-anchor="middle" x="938.0" y="289.0">Okkamon</text>
      <text class="st" id="txt30045330" text-anchor="middle" x="938.0" y="296.7">0.3</text>
      <rect class="camp0" height="22" id="rect30045334" rx="11" ry="11" style="stroke-width: 2; stroke: #6D5A18" title="Mushikegi" width="50" x="919.0" y="163.5" />
      <text class="ss" text-anchor="middle" x="943.0" y="174.0">Mushikegi</text>
      <text class="st" id="txt30045334" text-anchor="middle" x="943.0" y="181.7">0.4</text>
      <rect class="camp0" height="22" id="rect30002759" rx="11" ry="11" style="stroke-width: 2; stroke: #6D5A18" title="Uuna" width="50" x="929.0" y="88.5" />
      <text class="ss" text-anchor="middle" x="953.0" y="99.0">Uuna</text>
      <text class="st" id="txt30002759" text-anchor="middle" x="953.0" y="106.7">0.4</text>
      <rect class="camp0" height="22" id="rect30002812" rx="11" ry="11" style="stroke-width: 2; stroke: #6C421D" title="Tannolen" width="50" x="929.0" y="408.5" />
      <text class="ss" text-anchor="middle" x="953.0" y="419.0">Tannolen</text>
      <text class="st" id="txt30002812" text-anchor="middle" x="953.0" y="426.7">0.3</text>
      <rect class="camp0" height="22" id="rect30002760" rx="11" ry="11" style="stroke-width: 2; stroke: #6C421D" title="Manjonakko" width="50" x="949.0" y="133.5" />
      <text class="ss" text-anchor="middle" x="973.0" y="144.0">Manjonakko</text>
      <text class="st" id="txt30002760" text-anchor="middle" x="973.0" y="151.7">0.3</text>
      <rect class="e" height="22" id="rect30002039" title="RQH-MY" width="50" x="3.5" y="73.5" />
      <text class="es" text-anchor="middle" x="28.0" y="84.0">RQH-MY</text>
      <text class="er" text-anchor="middle" x="28.0" y="91.7">Pure Blind</text>
      <rect class="el" height="22" id="rect30003834" title="Chardalane" width="50" x="3.5" y="308.5" />
      <text class="es" text-anchor="middle" x="28.0" y="319.0">Chardalane</text>
      <text class="er" text-anchor="middle" x="28.0" y="326.7">Placid</text>
      <rect class="eh" height="22" id="rect30003832" title="Adacyne" width="50" x="3.5" y="343.5" />
      <text class="es" text-anchor="middle" x="28.0" y="354.0">Adacyne</text>
      <text class="er" text-anchor="middle" x="28.0" y="361.7">Placid</text>
      <rect class="eh" height="22" id="rect30004975" title="Mesybier" width="50" x="3.5" y="603.5" />
      <text class="es" text-anchor="middle" x="28.0" y="614.0">Mesybier</text>
      <text class="er" text-anchor="middle" x="28.0" y="621.7">Essence</text>
      <rect class="eh" height="22" id="rect30003831" title="Osmeden" width="50" x="8.5" y="383.5" />
      <text class="es" text-anchor="middle" x="33.0" y="394.0">Osmeden</text>
      <text class="er" text-anchor="middle" x="33.0" y="401.7">Placid</text>
      <rect class="eh" height="22" id="rect30003830" title="Orvolle" width="50" x="18.5" y="423.5" />
      <text class="es" text-anchor="middle" x="43.0" y="434.0">Orvolle</text>
      <text class="er" text-anchor="middle" x="43.0" y="441.7">Placid</text>
      <rect class="e" height="22" id="rect30003268" title="MHC-R3" width="50" x="63.5" y="518.5" />
      <text class="es" text-anchor="middle" x="88.0" y="529.0">MHC-R3</text>
      <text class="er" text-anchor="middle" x="88.0" y="536.7">Syndicate</text>
      <rect class="el" height="22" id="rect30003835" title="Maut" width="50" x="73.5" y="328.5" />
      <text class="es" text-anchor="middle" x="98.0" y="339.0">Maut</text>
      <text class="er" text-anchor="middle" x="98.0" y="346.7">Placid</text>
      <rect class="e" height="22" id="rect30004055" title="W-4NUU" width="50" x="78.5" y="18.5" />
      <text class="es" text-anchor="middle" x="103.0" y="29.0">W-4NUU</text>
      <text class="er" text-anchor="middle" x="103.0" y="36.7">Cloud Ring</text>
      <rect class="el" height="22" id="rect30003833" title="Oulley" width="50" x="78.5" y="403.5" />
      <text class="es" text-anchor="middle" x="103.0" y="414.0">Oulley</text>
      <text class="er" text-anchor="middle" x="103.0" y="421.7">Placid</text>
      <rect class="eh" height="22" id="rect30003824" title="Archavoinet" width="50" x="153.5" y="438.5" />
      <text class="es" text-anchor="middle" x="178.0" y="449.0">Archavoinet</text>
      <text class="er" text-anchor="middle" x="178.0" y="456.7">Placid</text>
      <rect class="el" height="22" id="rect30003806" title="Pelille" width="50" x="153.5" y="483.5" />
      <text class="es" text-anchor="middle" x="178.0" y="494.0">Pelille</text>
      <text class="er" text-anchor="middle" x="178.0" y="501.7">Placid</text>
      <rect class="eh" height="22" id="rect30003798" title="Slays" width="50" x="203.5" y="593.5" />
      <text class="es" text-anchor="middle" x="228.0" y="604.0">Slays</text>
      <text class="er" text-anchor="middle" x="228.0" y="611.7">Placid</text>
      <rect class="el" height="22" id="rect30003800" title="Alperaute" width="50" x="223.5" y="468.5" />
      <text class="es" text-anchor="middle" x="248.0" y="479.0">Alperaute</text>
      <text class="er" text-anchor="middle" x="248.0" y="486.7">Placid</text>
      <rect class="el" height="22" id="rect30003802" title="Cumemare" width="50" x="248.5" y="683.5" />
      <text class="es" text-anchor="middle" x="273.0" y="694.0">Cumemare</text>
      <text class="er" text-anchor="middle" x="273.0" y="701.7">Placid</text>
      <rect class="eh" height="22" id="rect30003794" title="Stacmon" width="50" x="258.5" y="568.5" />
      <text class="es" text-anchor="middle" x="283.0" y="579.0">Stacmon</text>
      <text class="er" text-anchor="middle" x="283.0" y="586.7">Placid</text>
      <rect class="eh" height="22" id="rect30005319" title="Raneilles" width="50" x="363.5" y="723.5" />
      <text class="es" text-anchor="middle" x="388.0" y="734.0">Raneilles</text>
      <text class="er" text-anchor="middle" x="388.0" y="741.7">Verge Vendor</text>
      <rect class="e" height="22" id="rect30004046" title="F7C-H0" width="50" x="383.5" y="333.5" />
      <text class="es" text-anchor="middle" x="408.0" y="344.0">F7C-H0</text>
      <text class="er" text-anchor="middle" x="408.0" y="351.7">Cloud Ring</text>
      <rect class="el" height="22" id="rect30001440" title="Karjataimon" width="50" x="438.5" y="3.5" />
      <text class="es" text-anchor="middle" x="463.0" y="14.0">Karjataimon</text>
      <text class="er" text-anchor="middle" x="463.0" y="21.7">Lonetrek</text>
      <rect class="eh" height="22" id="rect30005308" title="Jufvitte" width="50" x="453.5" y="503.5" />
      <text class="es" text-anchor="middle" x="478.0" y="514.0">Jufvitte</text>
      <text class="er" text-anchor="middle" x="478.0" y="521.7">Verge Vendor</text>
      <rect class="eh" height="22" id="rect30045329" title="Ichoriya" width="50" x="498.5" y="213.5" />
      <text class="es" text-anchor="middle" x="523.0" y="224.0">Ichoriya</text>
      <text class="er" text-anchor="middle" x="523.0" y="231.7">Black Rise</text>
      <rect class="el" height="22" id="rect30001435" title="Ohbochi" width="50" x="508.5" y="28.5" />
      <text class="es" text-anchor="middle" x="533.0" y="39.0">Ohbochi</text>
      <text class="er" text-anchor="middle" x="533.0" y="46.7">Lonetrek</text>
      <rect class="el" height="22" id="rect30005008" title="Aeschee" width="50" x="508.5" y="683.5" />
      <text class="es" text-anchor="middle" x="533.0" y="694.0">Aeschee</text>
      <text class="er" text-anchor="middle" x="533.0" y="701.7">Essence</text>
      <rect class="eh" height="22" id="rect30045321" title="Uchomida" width="50" x="513.5" y="168.5" />
      <text class="es" text-anchor="middle" x="538.0" y="179.0">Uchomida</text>
      <text class="er" text-anchor="middle" x="538.0" y="186.7">Black Rise</text>
      <rect class="eh" height="22" id="rect30045325" title="Rohamaa" width="50" x="528.5" y="133.5" />
      <text class="es" text-anchor="middle" x="553.0" y="144.0">Rohamaa</text>
      <text class="er" text-anchor="middle" x="553.0" y="151.7">Black Rise</text>
      <rect class="eh" height="22" id="rect30045324" title="Onnamon" width="50" x="563.5" y="98.5" />
      <text class="es" text-anchor="middle" x="588.0" y="109.0">Onnamon</text>
      <text class="er" text-anchor="middle" x="588.0" y="116.7">Black Rise</text>
      <rect class="eh" height="22" id="rect30045328" title="Ahtila" width="50" x="588.5" y="198.5" />
      <text class="es" text-anchor="middle" x="613.0" y="209.0">Ahtila</text>
      <text class="er" text-anchor="middle" x="613.0" y="216.7">Black Rise</text>
      <rect class="eh" height="22" id="rect30004995" title="Allamotte" width="50" x="633.5" y="713.5" />
      <text class="es" text-anchor="middle" x="658.0" y="724.0">Allamotte</text>
      <text class="er" text-anchor="middle" x="658.0" y="731.7">Essence</text>
      <rect class="eh" height="22" id="rect30045327" title="Tsuruma" width="50" x="638.5" y="78.5" />
      <text class="es" text-anchor="middle" x="663.0" y="89.0">Tsuruma</text>
      <text class="er" text-anchor="middle" x="663.0" y="96.7">Black Rise</text>
      <rect class="eh" height="22" id="rect30045326" title="Uuhulanen" width="50" x="638.5" y="133.5" />
      <text class="es" text-anchor="middle" x="663.0" y="144.0">Uuhulanen</text>
      <text class="er" text-anchor="middle" x="663.0" y="151.7">Black Rise</text>
      <rect class="el" height="22" id="rect30004977" title="Yvangier" width="50" x="658.5" y="628.5" />
      <text class="es" text-anchor="middle" x="683.0" y="639.0">Yvangier</text>
      <text class="er" text-anchor="middle" x="683.0" y="646.7">Essence</text>
      <rect class="eh" height="22" id="rect30004981" title="Actee" width="50" x="668.5" y="573.5" />
      <text class="es" text-anchor="middle" x="693.0" y="584.0">Actee</text>
      <text class="er" text-anchor="middle" x="693.0" y="591.7">Essence</text>
      <rect class="eh" height="22" id="rect30045322" title="Samanuni" width="50" x="673.5" y="173.5" />
      <text class="es" text-anchor="middle" x="698.0" y="184.0">Samanuni</text>
      <text class="er" text-anchor="middle" x="698.0" y="191.7">Black Rise</text>
      <rect class="el" height="22" id="rect30001388" title="Mara" width="50" x="688.5" y="3.5" />
      <text class="es" text-anchor="middle" x="713.0" y="14.0">Mara</text>
      <text class="er" text-anchor="middle" x="713.0" y="21.7">Lonetrek</text>
      <rect class="eh" height="22" id="rect30045323" title="Astoh" width="50" x="693.5" y="108.5" />
      <text class="es" text-anchor="middle" x="718.0" y="119.0">Astoh</text>
      <text class="er" text-anchor="middle" x="718.0" y="126.7">Black Rise</text>
      <rect class="eh" height="22" id="rect30004993" title="Villore" width="50" x="713.5" y="743.5" />
      <text class="es" text-anchor="middle" x="738.0" y="754.0">Villore</text>
      <text class="er" text-anchor="middle" x="738.0" y="761.7">Essence</text>
      <rect class="eh" height="22" id="rect30004983" title="Amane" width="50" x="743.5" y="568.5" />
      <text class="es" text-anchor="middle" x="768.0" y="579.0">Amane</text>
      <text class="er" text-anchor="middle" x="768.0" y="586.7">Essence</text>
      <rect class="el" height="22" id="rect30004986" title="Estaunitte" width="50" x="803.5" y="583.5" />
      <text class="es" text-anchor="middle" x="828.0" y="594.0">Estaunitte</text>
      <text class="er" text-anchor="middle" x="828.0" y="601.7">Essence</text>
      <rect class="eh" height="22" id="rect30001376" title="Nourvukaiken" width="50" x="883.5" y="358.5" />
      <text class="es" text-anchor="middle" x="908.0" y="369.0">Nourvukaiken</text>
      <text class="er" text-anchor="middle" x="908.0" y="376.7">Lonetrek</text>
      <rect class="eh" height="22" id="rect30002755" title="Usi" width="50" x="953.5" y="8.5" />
      <text class="es" text-anchor="middle" x="978.0" y="19.0">Usi</text>
      <text class="er" text-anchor="middle" x="978.0" y="26.7">The Citadel</text>
      <rect class="eh" height="22" id="rect30005334" title="Tierijev" width="50" x="958.5" y="363.5" />
      <text class="es" text-anchor="middle" x="983.0" y="374.0">Tierijev</text>
      <text class="er" text-anchor="middle" x="983.0" y="381.7">Verge Vendor</text>
      <rect class="eh" height="22" id="rect30002795" title="Oshaima" width="50" x="958.5" y="473.5" />
      <text class="es" text-anchor="middle" x="983.0" y="484.0">Oshaima</text>
      <text class="er" text-anchor="middle" x="983.0" y="491.7">The Citadel</text>
      <rect class="eh" height="22" id="rect30002799" title="Oisio" width="50" x="963.5" y="528.5" />
      <text class="es" text-anchor="middle" x="988.0" y="539.0">Oisio</text>
      <text class="er" text-anchor="middle" x="988.0" y="546.7">The Citadel</text>
</g>
</g>
</svg>
